<!-- This Source Code Form is subject to the terms of the Mozilla Public
   - License, v. 2.0. If a copy of the MPL was not distributed with this
   - file, You can obtain one at http://mozilla.org/MPL/2.0/. -->
<svg fill="context-fill" fill-opacity="context-fill-opacity" xmlns="http://www.w3.org/2000/svg"
     width="32" height="32" viewBox="0 0 32 32">
#include indexedDB-icon.inc.svg
</svg>
